
<svg xmlns="http://www.w3.org/2000/svg" version="1.1" xmlns:xlink="http://www.w3.org/1999/xlink" preserveAspectRatio="none" x="0px" y="0px" width="197px" height="50px" viewBox="0 0 197 50">
<defs>
<g id="Layer0_0_FILL">
<path fill="#000000" stroke="none" d="
M 160.4 23.05
L 157.6 23.05 157.6 17.05 155.2 17.05 155.2 32.8
Q 155.2 34.05 155.55 35.05 155.95 36.05 157 36.75 157.55 37.1 158.25 37.25 159 37.35 159.6 37.3 160.2 37.3 160.4 37.2
L 160.4 35 159.6 35
Q 159.25 35.05 159 35 158.7 35 158.35 34.75 158 34.55 157.8 34.25 157.6 33.95 157.6 33.55
L 157.6 25.45 160.4 25.45 160.4 23.05
M 149.1 23.75
Q 147.4 22.75 145.3 22.7 143.25 22.75 141.55 23.7 139.9 24.7 138.85 26.4 137.85 28.1 137.85 30.15 137.85 32.3 138.85 33.95 139.85 35.65 141.55 36.65 143.25 37.6 145.3 37.65 146.35 37.65 147.4 37.3 148.45 37 149.3 36.5 150.15 36 150.55 35.35
L 150.55 37.25 152.75 37.25 152.75 30.15
Q 152.75 28.1 151.75 26.4 150.8 24.75 149.1 23.75
M 140.9 32.7
Q 140.25 31.6 140.25 30.15 140.25 28.75 140.9 27.65 141.6 26.5 142.75 25.8 143.9 25.1 145.3 25.1 146.7 25.1 147.85 25.8 148.95 26.5 149.65 27.65 150.3 28.75 150.35 30.15 150.3 31.6 149.65 32.7 148.95 33.85 147.85 34.55 146.7 35.2 145.3 35.2 143.9 35.2 142.75 34.55 141.6 33.85 140.9 32.7
M 127.65 30
Q 127.8 29.55 127.7 29.1 127.4 27.2 126.35 25.75 125.35 24.35 123.75 23.5 122.2 22.7 120.35 22.7 118.3 22.75 116.6 23.75 114.9 24.75 113.9 26.4 112.85 28.1 112.85 30.15 112.85 32.2 113.85 33.9 114.85 35.55 116.55 36.6 118.25 37.6 120.35 37.65 122.1 37.65 123.55 36.95 125 36.25 126 35.05 127.05 33.85 127.5 32.35
L 124.95 32.35
Q 124.25 33.65 123.05 34.4 121.85 35.2 120.35 35.2 119.15 35.25 118.15 34.75 117.15 34.25 116.4 33.4 115.7 32.5 115.45 31.4
L 125.5 31.4
Q 126.05 31.4 126.55 31.25 127.05 31.05 127.3 30.8 127.55 30.4 127.65 30
M 123.55 26.2
Q 124.85 27.3 125.3 29.1
L 115.4 29.1
Q 115.8 27.3 117.15 26.2 118.45 25.15 120.35 25.1 122.2 25.15 123.55 26.2
M 110 15.3
L 107.6 15.3 107.6 37.25 110 37.25 110 15.3
M 92.15 15.3
L 89.8 15.3 89.8 29.7
Q 89.85 32 90.8 33.7 91.8 35.4 93.5 36.35 95.15 37.3 97.3 37.35 99.35 37.3 101 36.35 102.65 35.35 103.65 33.7 104.65 32 104.65 29.95 104.65 27.9 103.65 26.2 102.65 24.5 100.95 23.5 99.3 22.55 97.2 22.55 95.6 22.55 94.4 23.1 93.2 23.65 92.15 24.75
L 92.15 15.3
M 92.15 29.95
Q 92.2 28.55 92.85 27.4 93.5 26.3 94.6 25.6 95.75 24.95 97.1 24.9 98.55 24.85 99.75 25.55 100.9 26.2 101.65 27.35 102.35 28.5 102.35 29.95 102.35 31.4 101.65 32.55 100.9 33.7 99.7 34.4 98.5 35.05 97.05 35 95.65 34.9 94.55 34.25 93.45 33.55 92.8 32.45 92.2 31.3 92.15 29.95
M 83.9 36.5
Q 84.75 36 85.15 35.35
L 85.15 37.25 87.35 37.25 87.35 30.15
Q 87.35 28.1 86.35 26.4 85.4 24.75 83.7 23.75 82 22.75 79.9 22.7 77.85 22.75 76.15 23.7 74.5 24.7 73.45 26.4 72.45 28.1 72.45 30.15 72.45 32.3 73.45 33.95 74.45 35.65 76.15 36.65 77.85 37.6 79.9 37.65 80.95 37.65 82 37.3 83.05 37 83.9 36.5
M 84.25 27.65
Q 84.9 28.75 84.95 30.15 84.9 31.6 84.25 32.7 83.55 33.85 82.45 34.55 81.3 35.2 79.9 35.2 78.5 35.2 77.35 34.55 76.2 33.85 75.5 32.7 74.85 31.6 74.85 30.15 74.85 28.75 75.5 27.65 76.2 26.5 77.35 25.8 78.5 25.1 79.9 25.1 81.3 25.1 82.45 25.8 83.55 26.5 84.25 27.65
M 70.45 15.3
L 68.05 15.3 68.05 37.25 70.45 37.25 70.45 15.3
M 64.35 22.9
L 62.15 22.9 62.15 37.25 64.35 37.25 64.35 22.9
M 63.2 18
Q 62.65 18.05 62.25 18.4 61.9 18.8 61.85 19.35 61.9 19.95 62.25 20.35 62.65 20.75 63.25 20.75 63.8 20.75 64.2 20.3 64.55 19.9 64.55 19.3 64.45 18.8 64.1 18.4 63.75 18.05 63.2 18
M 55.1 23.75
Q 53.4 22.75 51.3 22.7 49.25 22.75 47.55 23.7 45.9 24.7 44.85 26.4 43.85 28.1 43.85 30.15 43.85 32.3 44.85 33.95 45.85 35.65 47.55 36.65 49.25 37.6 51.3 37.65 52.35 37.65 53.4 37.3 54.45 37 55.3 36.5 56.15 36 56.55 35.35
L 56.55 37.25 58.75 37.25 58.75 30.15
Q 58.75 28.1 57.75 26.4 56.8 24.75 55.1 23.75
M 53.85 25.8
Q 54.95 26.5 55.65 27.65 56.3 28.75 56.35 30.15 56.3 31.6 55.65 32.7 54.95 33.85 53.85 34.55 52.7 35.2 51.3 35.2 49.9 35.2 48.75 34.55 47.6 33.85 46.9 32.7 46.25 31.6 46.25 30.15 46.25 28.75 46.9 27.65 47.6 26.5 48.75 25.8 49.9 25.1 51.3 25.1 52.7 25.1 53.85 25.8
M 44.1 23.1
L 41.6 23.1 38.3 34.05 34.85 23.1 32.5 23.1 36.7 36.35
Q 36.9 36.95 37.35 37.3 37.8 37.7 38.4 37.65 38.95 37.6 39.25 37.3 39.6 36.95 39.8 36.45
L 44.1 23.1
M 28.9 23.75
Q 27.2 22.75 25.1 22.7 23.05 22.75 21.35 23.7 19.7 24.7 18.65 26.4 17.65 28.1 17.65 30.15 17.65 32.3 18.65 33.95 19.65 35.65 21.35 36.65 23.05 37.6 25.1 37.65 26.15 37.65 27.2 37.3 28.25 37 29.1 36.5 29.95 36 30.35 35.35
L 30.35 37.25 32.55 37.25 32.55 30.15
Q 32.55 28.1 31.55 26.4 30.6 24.75 28.9 23.75
M 29.45 27.65
Q 30.1 28.75 30.15 30.15 30.1 31.6 29.45 32.7 28.75 33.85 27.65 34.55 26.5 35.2 25.1 35.2 23.7 35.2 22.55 34.55 21.4 33.85 20.7 32.7 20.05 31.6 20.05 30.15 20.05 28.75 20.7 27.65 21.4 26.5 22.55 25.8 23.7 25.1 25.1 25.1 26.5 25.1 27.65 25.8 28.75 26.5 29.45 27.65 Z"/>
</g>
</defs>

<g transform="matrix( 1, 0, 0, 1, 0,0) ">
<use xlink:href="#Layer0_0_FILL"/>
</g>
</svg>
