<?xml version="1.0" encoding="utf-8"?>
<!-- Generator: Adobe Illustrator 20.0.0, SVG Export Plug-In . SVG Version: 6.00 Build 0)  -->
<svg version="1.1" id="Layer_1" xmlns="http://www.w3.org/2000/svg" xmlns:xlink="http://www.w3.org/1999/xlink" x="0px" y="0px"
	 viewBox="0 0 100 100" style="enable-background:new 0 0 100 100;" xml:space="preserve">
<style type="text/css">
	.st0{fill:#FFFFFF;}
</style>
<g transform="matrix( 0.179901123046875, 0, 0, 0.179901123046875, -4.45,-6.2) ">
	<g>
		<g id="Layer0_0_FILL">
			<path class="st0" d="M88.9,204.8c-3,3-4.5,6.6-4.5,10.8v162.5c0,4.2,1.5,7.8,4.5,10.8c3,3,6.6,4.5,10.8,4.5
				c4.2,0,7.8-1.5,10.8-4.5c3-3,4.4-6.6,4.4-10.8v-64.3c0-7.9,2.8-14.6,8.4-20.1c5.6-5.6,12.3-8.4,20.2-8.4c7.9,0,14.6,2.8,20.2,8.4
				c5.6,5.6,8.4,12.3,8.4,20.1v64.3c0,4.2,1.5,7.8,4.4,10.8c3,3,6.6,4.5,10.8,4.5c4.2,0,7.8-1.5,10.8-4.5c3-3,4.4-6.6,4.4-10.8
				v-64.3c0-16.3-5.8-30.2-17.3-41.7c-11.6-11.5-25.5-17.3-41.8-17.3c-10.2,0-19.7,2.5-28.5,7.4v-46.6c0-4.2-1.5-7.8-4.4-10.8
				c-3-3-6.6-4.4-10.8-4.4C95.5,200.4,91.9,201.8,88.9,204.8z"/>
		</g>
	</g>
</g>
<g transform="matrix( 0.179901123046875, 0, 0, 0.179901123046875, -4.45,-6.2) ">
	<g>
		<g id="Layer0_1_FILL">
			<path class="st0" d="M349.6,254.9c-7.9,0-15.5,1.6-22.7,4.8c-6.9,3.1-13,7.4-18.3,13c-5.2-5.6-11.3-9.9-18.3-13
				c-7.2-3.2-14.8-4.8-22.7-4.8c-15.5,0-28.8,5.5-39.8,16.5c-11,11-16.5,24.2-16.5,39.7v67.1c0,4.2,1.5,7.8,4.5,10.8
				c3,3,6.6,4.5,10.8,4.5c4.2,0,7.8-1.5,10.8-4.5c3-3,4.4-6.6,4.4-10.8v-67.1c0-7.1,2.5-13.1,7.6-18.1c5-5,11.1-7.6,18.2-7.6
				c7.1,0,13.1,2.5,18.1,7.6c5,5,7.5,11,7.5,18.1v67.1c0,4.2,1.5,7.8,4.5,10.8c3,3,6.6,4.5,10.8,4.5c4.2,0,7.8-1.5,10.8-4.5
				c3-3,4.4-6.6,4.4-10.8v-67.1c0-7.1,2.5-13.1,7.6-18.1c5-5,11.1-7.6,18.2-7.6c7.1,0,13.1,2.5,18.1,7.6c5,5,7.5,11,7.5,18.1v67.1
				c0,4.2,1.5,7.8,4.5,10.8c3,3,6.6,4.5,10.8,4.5c4.2,0,7.8-1.5,10.8-4.5c3-3,4.4-6.6,4.4-10.8v-67.1c0-15.5-5.5-28.7-16.4-39.7
				C378.4,260.4,365.1,254.9,349.6,254.9z"/>
		</g>
	</g>
</g>
<g transform="matrix( 0.179901123046875, 0, 0, 0.179901123046875, -4.45,-6.2) ">
	<g>
		<g id="Layer0_2_FILL">
			<path class="st0" d="M423.8,256c-3.9-1.6-7.8-1.5-11.7,0.1c-3.9,1.7-6.6,4.5-8.1,8.4c-1.6,3.9-1.5,7.8,0.1,11.6l46.4,108
				c1.2,2.8,3.1,5,5.6,6.8c2.6,1.7,5.4,2.5,8.4,2.5c3.1,0,5.9-0.8,8.4-2.5c2.6-1.7,4.5-4,5.6-6.8l46.4-107.9
				c1.7-3.9,1.7-7.8,0.1-11.7c-1.6-3.9-4.3-6.7-8.1-8.4c-3.8-1.6-7.7-1.7-11.7-0.1c-3.9,1.6-6.7,4.3-8.4,8.1l-11.1,29.2
				c-8.5,22.1-15.6,39.8-21.3,53c-5.7-13.2-12.8-30.9-21.4-53l-11-29.2C430.4,260.2,427.7,257.5,423.8,256z"/>
		</g>
	</g>
</g>
</svg>
