
<svg xmlns="http://www.w3.org/2000/svg" version="1.1" xmlns:xlink="http://www.w3.org/1999/xlink" preserveAspectRatio="none" x="0px" y="0px" width="70px" height="50px" viewBox="0 0 70 50">
<defs>
<g id="Layer0_0_FILL">
<path fill="#000000" stroke="none" d="
M 41.2 25.45
L 41.2 23.05 38.4 23.05 38.4 17.05 36 17.05 36 32.8
Q 36 34.05 36.35 35.05 36.75 36.05 37.8 36.75 38.35 37.1 39.05 37.25 39.8 37.35 40.4 37.3 41 37.3 41.2 37.2
L 41.2 35 40.4 35
Q 40.05 35.05 39.8 35 39.5 35 39.15 34.75 38.8 34.55 38.6 34.25 38.4 33.95 38.4 33.55
L 38.4 25.45 41.2 25.45
M 28.9 23.75
Q 27.2 22.75 25.1 22.7 23.05 22.75 21.35 23.7 19.7 24.7 18.65 26.4 17.65 28.1 17.65 30.15 17.65 32.3 18.65 33.95 19.65 35.65 21.35 36.65 23.05 37.6 25.1 37.65 26.15 37.65 27.2 37.3 28.25 37 29.1 36.5 29.95 36 30.35 35.35
L 30.35 37.25 32.55 37.25 32.55 30.15
Q 32.55 28.1 31.55 26.4 30.6 24.75 28.9 23.75
M 29.45 27.65
Q 30.1 28.75 30.15 30.15 30.1 31.6 29.45 32.7 28.75 33.85 27.65 34.55 26.5 35.2 25.1 35.2 23.7 35.2 22.55 34.55 21.4 33.85 20.7 32.7 20.05 31.6 20.05 30.15 20.05 28.75 20.7 27.65 21.4 26.5 22.55 25.8 23.7 25.1 25.1 25.1 26.5 25.1 27.65 25.8 28.75 26.5 29.45 27.65 Z"/>
</g>
</defs>

<g transform="matrix( 1, 0, 0, 1, 0,0) ">
<use xlink:href="#Layer0_0_FILL"/>
</g>
</svg>
